/var/spool/slurmd/job05340/slurm_script: line 3: SBATCH: command not found
/var/spool/slurmd/job05340/slurm_script: line 4: SBATCH: command not found
/var/spool/slurmd/job05340/slurm_script: line 5: SBATCH: command not found
/var/spool/slurmd/job05340/slurm_script: line 6: SBATCH: command not found
/var/spool/slurmd/job05340/slurm_script: line 7: SBATCH: command not found
/var/spool/slurmd/job05340/slurm_script: line 8: SBATCH: command not found
/var/spool/slurmd/job05340/slurm_script: line 12: SBATCH: command not found
/var/spool/slurmd/job05340/slurm_script: line 16: SBATCH: command not found
/var/spool/slurmd/job05340/slurm_script: line 17: SBATCH: command not found
/var/spool/slurmd/job05340/slurm_script: line 20: SBATCH: command not found
2021-09-13 14:45:44.470723: I tensorflow/stream_executor/platform/default/dso_loader.cc:49] Successfully opened dynamic library libcudart.so.10.2

libgomp: Invalid value for environment variable OMP_NUM_THREADS
WARNING:root:Limited tf.compat.v2.summary API due to missing TensorBoard installation.
WARNING:root:Limited tf.compat.v2.summary API due to missing TensorBoard installation.
WARNING:root:Limited tf.compat.v2.summary API due to missing TensorBoard installation.
WARNING:root:Limited tf.summary API due to missing TensorBoard installation.
Traceback (most recent call last):
  File "../scripts/model_runner.py", line 18, in <module>
    from models import resnet_model, vgg_model
  File "/mnt/projects/sne_students/project_penumonia_classification_niklas_schlueter/chest-xray-pneumonia-classifier/scripts/models.py", line 2, in <module>
    import tensorflow_hub as hub
ModuleNotFoundError: No module named 'tensorflow_hub'
srun: error: carlos: task 0: Exited with exit code 1
