/var/spool/slurmd/job05336/slurm_script: line 3: SBATCH: command not found
/var/spool/slurmd/job05336/slurm_script: line 4: SBATCH: command not found
/var/spool/slurmd/job05336/slurm_script: line 5: SBATCH: command not found
/var/spool/slurmd/job05336/slurm_script: line 6: SBATCH: command not found
/var/spool/slurmd/job05336/slurm_script: line 7: SBATCH: command not found
/var/spool/slurmd/job05336/slurm_script: line 8: SBATCH: command not found
/var/spool/slurmd/job05336/slurm_script: line 12: SBATCH: command not found
/var/spool/slurmd/job05336/slurm_script: line 16: SBATCH: command not found
/var/spool/slurmd/job05336/slurm_script: line 17: SBATCH: command not found
/var/spool/slurmd/job05336/slurm_script: line 20: SBATCH: command not found
Traceback (most recent call last):
  File "../scripts/model_runner.py", line 9, in <module>
    import tensorflow as tf
ModuleNotFoundError: No module named 'tensorflow'
srun: error: carlos: task 0: Exited with exit code 1
